Количественные методы в историко-философских исследованиях: как и зачем
…
- Мы можем сохранить в виде вектра числе сведения о том, с какими словами соседствует некое слово.

- Скользящее окно фиксированной ширины.

- Как правило, для этого исполььзуется такой показатель, как точечная взаимная информация (PMI).

<center><img src="images/pmi.svg" width=60%>

---
# 5. PMI для Corpus Platonicum

```
## # A tibble: 668 × 3
##    item1 item2     pmi
##    <chr> <chr>   <dbl>
##  1 γῆ    ὕδωρ     3.35
##  2 γῆ    ἀήρ      3.33
##  3 γῆ    σπέρμα   3.20
##  4 γῆ    οὐρανός  3.10
##  5 γῆ    θάλασσα  3.05
##  6 γῆ    καρπός   2.94
##  7 γῆ    σελήνη   2.90
##  8 γῆ    ἄφθονος  2.80
##  9 γῆ    βάθος    2.79
## 10 γῆ    φυτόν    2.73
## # … with 658 more rows
```
…
